%YAML 1.1
%TAG !u! tag:unity3d.com,2011:
--- !u!21 &2100000
Material:
  serializedVersion: 6
  m_ObjectHideFlags: 0
  m_CorrespondingSourceObject: {fileID: 0}
  m_PrefabInstance: {fileID: 0}
  m_PrefabAsset: {fileID: 0}
  m_Name: M_00102_sham_H_Base
  m_Shader: {fileID: 4800000, guid: 3e04f561ae7fb9648b8c37a924265cf6, type: 3}
  m_ShaderKeywords: 
  m_LightmapFlags: 5
  m_EnableInstancingVariants: 0
  m_DoubleSidedGI: 0
  m_CustomRenderQueue: -1
  stringTagMap: {}
  disabledShaderPasses: []
  m_SavedProperties:
    serializedVersion: 3
    m_TexEnvs:
    - _MatrixTex:
        m_Texture: {fileID: 2800000, guid: d892d9ff5d9418c41bcc53b4a4d120d5, type: 3}
        m_Scale: {x: 1, y: 1}
        m_Offset: {x: 0, y: 0}
    - _diffuse:
        m_Texture: {fileID: 2800000, guid: 41f7632a929cd434baec267ffcbdd31d, type: 3}
        m_Scale: {x: 1, y: 1}
        m_Offset: {x: 0, y: 0}
    - _eyesTex:
        m_Texture: {fileID: 2800000, guid: 3c99d6471836d7b488f9b8e0e5221b4b, type: 3}
        m_Scale: {x: 1, y: 1}
        m_Offset: {x: 1, y: 1}
    - _maskTex:
        m_Texture: {fileID: 2800000, guid: 8ce174ada8ec54043a923da4c3cb8e7a, type: 3}
        m_Scale: {x: 1, y: 1}
        m_Offset: {x: 0, y: 0}
    - _matMetal:
        m_Texture: {fileID: 2800000, guid: 02b618946d3ce4d4cb4e434624ec684a, type: 3}
        m_Scale: {x: 1, y: 1}
        m_Offset: {x: 0, y: 0}
    - _matToon:
        m_Texture: {fileID: 2800000, guid: e840a4e5ee16fa24ba1d3dd6590480f7, type: 3}
        m_Scale: {x: 1, y: 1}
        m_Offset: {x: 0, y: 0}
    - _mouthTex:
        m_Texture: {fileID: 2800000, guid: bd0a0bf5bbf877a45baa1ee49ee3e860, type: 3}
        m_Scale: {x: 1, y: 1}
        m_Offset: {x: 0, y: 0}
    m_Floats:
    - _MatrixWidth: 4
    - _Threshold: 1
    m_Colors: []
  m_BuildTextureStacks: []
